%YAML 1.1
%TAG !u! tag:unity3d.com,2011:
--- !u!1001 &1859788162328437691
PrefabInstance:
  m_ObjectHideFlags: 0
  serializedVersion: 2
  m_Modification:
    serializedVersion: 3
    m_TransformParent: {fileID: 0}
    m_Modifications:
    - target: {fileID: 751742625088105228, guid: cb89681e1ca22612da0f4ebe9d2fba83, type: 3}
      propertyPath: NoiseModule.strength.scalar
      value: 4.73
      objectReference: {fileID: 0}
    - target: {fileID: 751742625088105228, guid: cb89681e1ca22612da0f4ebe9d2fba83, type: 3}
      propertyPath: InitialModule.startColor.maxColor.b
      value: 0.12824775
      objectReference: {fileID: 0}
    - target: {fileID: 751742625088105228, guid: cb89681e1ca22612da0f4ebe9d2fba83, type: 3}
      propertyPath: InitialModule.startColor.maxColor.g
      value: 0.11400856
      objectReference: {fileID: 0}
    - target: {fileID: 751742625088105228, guid: cb89681e1ca22612da0f4ebe9d2fba83, type: 3}
      propertyPath: InitialModule.startColor.maxColor.r
      value: 0.13207549
      objectReference: {fileID: 0}
    - target: {fileID: 751742625088105228, guid: cb89681e1ca22612da0f4ebe9d2fba83, type: 3}
      propertyPath: InitialModule.startColor.minColor.b
      value: 0.2772339
      objectReference: {fileID: 0}
    - target: {fileID: 751742625088105228, guid: cb89681e1ca22612da0f4ebe9d2fba83, type: 3}
      propertyPath: InitialModule.startColor.minColor.g
      value: 0.26566395
      objectReference: {fileID: 0}
    - target: {fileID: 751742625088105228, guid: cb89681e1ca22612da0f4ebe9d2fba83, type: 3}
      propertyPath: InitialModule.startColor.minColor.r
      value: 0.2830189
      objectReference: {fileID: 0}
    - target: {fileID: 3258184152668092098, guid: cb89681e1ca22612da0f4ebe9d2fba83, type: 3}
      propertyPath: m_RootOrder
      value: 10
      objectReference: {fileID: 0}
    - target: {fileID: 3258184152668092098, guid: cb89681e1ca22612da0f4ebe9d2fba83, type: 3}
      propertyPath: m_LocalPosition.x
      value: -7.63
      objectReference: {fileID: 0}
    - target: {fileID: 3258184152668092098, guid: cb89681e1ca22612da0f4ebe9d2fba83, type: 3}
      propertyPath: m_LocalPosition.y
      value: -6.75
      objectReference: {fileID: 0}
    - target: {fileID: 3258184152668092098, guid: cb89681e1ca22612da0f4ebe9d2fba83, type: 3}
      propertyPath: m_LocalPosition.z
      value: 0.01
      objectReference: {fileID: 0}
    - target: {fileID: 3258184152668092098, guid: cb89681e1ca22612da0f4ebe9d2fba83, type: 3}
      propertyPath: m_LocalRotation.w
      value: 1
      objectReference: {fileID: 0}
    - target: {fileID: 3258184152668092098, guid: cb89681e1ca22612da0f4ebe9d2fba83, type: 3}
      propertyPath: m_LocalRotation.x
      value: 0
      objectReference: {fileID: 0}
    - target: {fileID: 3258184152668092098, guid: cb89681e1ca22612da0f4ebe9d2fba83, type: 3}
      propertyPath: m_LocalRotation.y
      value: 0
      objectReference: {fileID: 0}
    - target: {fileID: 3258184152668092098, guid: cb89681e1ca22612da0f4ebe9d2fba83, type: 3}
      propertyPath: m_LocalRotation.z
      value: 0
      objectReference: {fileID: 0}
    - target: {fileID: 3258184152668092098, guid: cb89681e1ca22612da0f4ebe9d2fba83, type: 3}
      propertyPath: m_LocalEulerAnglesHint.x
      value: 0
      objectReference: {fileID: 0}
    - target: {fileID: 3258184152668092098, guid: cb89681e1ca22612da0f4ebe9d2fba83, type: 3}
      propertyPath: m_LocalEulerAnglesHint.y
      value: 0
      objectReference: {fileID: 0}
    - target: {fileID: 3258184152668092098, guid: cb89681e1ca22612da0f4ebe9d2fba83, type: 3}
      propertyPath: m_LocalEulerAnglesHint.z
      value: 0
      objectReference: {fileID: 0}
    - target: {fileID: 4975007121152510176, guid: cb89681e1ca22612da0f4ebe9d2fba83, type: 3}
      propertyPath: m_Name
      value: Enemy Explosion Variant
      objectReference: {fileID: 0}
    m_RemovedComponents: []
    m_RemovedGameObjects: []
    m_AddedGameObjects: []
    m_AddedComponents: []
  m_SourcePrefab: {fileID: 100100000, guid: cb89681e1ca22612da0f4ebe9d2fba83, type: 3}
